^E:\DATA\PROYECTOSTFS\EASY APPS\TRUNK\EASYDOC\CARDINAL.EASYAPPS.ED.CARATULAS\APP\CARDINAL.EASYAPPS.CARATULAS\CARDINAL.CARATULAS\PROPERTIES\RESOURCES.RESX
^E:\DATA\PROYECTOSTFS\EASY APPS\TRUNK\EASYDOC\CARDINAL.EASYAPPS.ED.CARATULAS\APP\CARDINAL.EASYAPPS.CARATULAS\CARDINAL.CARATULAS\REPORTES\REPORT4.RESX
C:\WINDOWS\ASSEMBLY\PUBPOL70.DAT
C:\WINDOWS\MICROSOFT.NET\ASSEMBLY\GAC_MSIL\MICROSOFT.BUILD.TASKS.V4.0\V4.0_4.0.0.0__B03F5F7F11D50A3A\MICROSOFT.BUILD.TASKS.V4.0.DLL
